{
  "shell_port": 37193,
  "iopub_port": 33543,
  "stdin_port": 32863,
  "control_port": 35937,
  "hb_port": 44549,
  "ip": "127.0.0.1",
  "key": "3b17e713-6d6c02f6cdc508b36a51026d",
  "transport": "tcp",
  "signature_scheme": "hmac-sha256",
  "kernel_name": ""
}